%YAML 1.1
%TAG !u! tag:unity3d.com,2011:
--- !u!78 &1
TagManager:
  serializedVersion: 2
  tags:
  - Floor
  - Water
  - Target
  - Trampoline
  - Enemigo
  - Player4
  - Player5
  - Player1
  - Player2
  - Player0
  - Player3
  - Player6
  - Ebomba
  - Lanza
  - Esanguijuela
  - Campodefuerza
  - Boton1
  - Boton2
  - Boton3
  - Boton1violeta
  - Boton1naranja
  - BotonBajar
  - PisoEnemigo
  - proyectil
  - EnemigoPatrullador
  - Bombasimple
  - Ganar
  - PisoInvicible
  layers:
  - Default
  - TransparentFX
  - Ignore Raycast
  - 
  - Water
  - UI
  - 
  - PisoInvisibleLayer
  - Player
  - Floor
  - Character
  - player4
  - agua
  - player0
  - 
  - 
  - 
  - 
  - 
  - 
  - 
  - 
  - 
  - 
  - 
  - 
  - 
  - 
  - 
  - 
  - 
  - 
  m_SortingLayers:
  - name: Default
    uniqueID: 0
    locked: 0
